<svg width="67" height="36" viewBox="0 0 67 36" fill="none" xmlns="http://www.w3.org/2000/svg">
<path d="M52.7662 0.804684L47.9395 20.9354L43.0855 0.804684H28.838V8.30872C27.1289 1.7323 21.099 0.0985844 15.5203 0.0016688C8.71101 -0.0814017 1.57359 2.92298 1.36849 12.13H10.721C10.6936 11.5392 10.7911 10.9493 11.007 10.3998C11.2229 9.85022 11.5523 9.35371 11.973 8.94345C12.3937 8.53318 12.8961 8.21862 13.4465 8.02081C13.997 7.82301 14.5828 7.74651 15.1648 7.79645C18.0362 7.79645 19.3625 9.02866 19.4308 10.9947C19.3351 12.6976 18.3506 13.8468 15.1785 13.8468H12.0199V20.5201H14.8913C15.8496 20.4343 16.8032 20.7307 17.5489 21.3461C18.2946 21.9616 18.7736 22.8475 18.8839 23.8152C18.9933 26.5842 17.0654 27.8857 14.6999 27.9687C10.4612 27.8164 9.77752 24.4798 9.77752 21.6138H0.00116426C0.00116426 23.5383 -0.422706 36.0958 14.905 35.9989C22.2338 36.0681 27.3613 32.9114 28.8654 28.5641V35.2236H38.505V13.5145L43.7555 35.2374H52.1782L57.4287 13.5422V35.2512H67V0.804684H52.7662ZM28.8654 20.8801C28.1341 19.1045 26.7663 17.675 25.0368 16.8788C25.9871 16.4755 26.8295 15.8499 27.495 15.0533C28.1605 14.2568 28.6301 13.3119 28.8654 12.2961V20.8801Z" fill="#1E1E1D"/>
</svg>
