<svg width="137" height="80" viewBox="0 0 137 80" fill="none" xmlns="http://www.w3.org/2000/svg">
<path fill-rule="evenodd" clip-rule="evenodd" d="M33.2905 38.2841C33.0019 39.0752 32.7056 39.8643 32.4092 40.6539C31.9519 41.8719 31.4943 43.0907 31.0641 44.3187C33.385 45.2342 35.5244 46.5544 37.3824 48.2176L37.3822 48.218L37.382 48.2185L37.3818 48.2189L37.3816 48.2194L37.3815 48.2198L37.3813 48.2203L37.3811 48.2208L37.3809 48.2212L37.3807 48.2217L37.3806 48.2221L37.3804 48.2226L37.3802 48.223C36.274 51.0274 35.1678 53.8318 34.0243 56.6238C32.3055 54.8758 30.2491 53.4944 27.9797 52.5635L27.7349 53.2108L27.7347 53.2113C26.5729 56.2844 25.4146 59.348 24.3106 62.4225H14.7711C16.1889 58.6229 17.6027 54.8233 19.0123 51.0238C17.4446 50.981 15.8919 51.3382 14.5012 52.0618C13.1104 52.7854 11.9276 53.8512 11.0647 55.1586C10.3077 56.2455 9.96368 57.5663 10.0946 58.8836C10.1934 60.276 10.5752 61.6337 11.2167 62.874C11.8582 64.1143 12.7459 65.2112 13.8258 66.0979C16.8908 68.397 20.5908 69.6977 24.4225 69.8229C27.545 70.1171 30.6948 69.7879 33.6885 68.8544C36.3956 68.01 38.7898 66.3804 40.5664 64.1732C42.7761 61.2232 43.813 57.5605 43.4767 53.8921C43.2966 51.8775 42.8946 49.9021 42.4928 47.9279C42.3399 47.1765 42.187 46.4252 42.0464 45.6721C41.398 42.6041 41.0398 39.482 40.9768 36.347C38.5089 37.3205 35.9254 37.9715 33.2905 38.2841ZM23.1415 19.3359C22.7608 20.1548 22.5635 21.0468 22.5635 21.9497C22.5635 22.8525 22.7608 23.7445 23.1415 24.5634C23.959 26.43 25.4073 27.9506 27.2334 28.8596C27.4648 28.3283 27.6723 27.7826 27.8796 27.2374L27.8796 27.2374L27.8797 27.2373L27.8797 27.2372L27.8797 27.2371L27.8797 27.2371L27.8798 27.237L27.8798 27.2369L27.8798 27.2368L27.8799 27.2368L27.8799 27.2367L27.8799 27.2366L27.8799 27.2365C28.0068 26.9029 28.1336 26.5695 28.2657 26.2397C28.8805 24.8791 29.3274 23.4489 29.5965 21.9807C29.7144 21.3564 29.7024 20.7145 29.5611 20.095C29.4199 19.4756 29.1526 18.8917 28.7757 18.3798C28.3439 17.8866 27.7774 17.5298 27.1455 17.3534C26.5137 17.1769 25.844 17.1884 25.2185 17.3865C24.7602 17.5524 24.3413 17.8113 23.9881 18.1468C23.635 18.4823 23.3552 18.8872 23.1664 19.3359H23.1415ZM25.6912 8.01172H27.8677C30.082 8.15246 32.2232 8.85787 34.0865 10.0605C36.2987 11.5544 37.8835 13.8083 38.5391 16.3931C39.3042 19.6033 39.0654 22.9704 37.855 26.041L36.6983 29.2694C38.5244 28.8618 40.195 27.9396 41.5116 26.6122C42.794 25.1423 43.6536 23.3529 43.9991 21.4344H53.7501C51.9325 25.8666 50.9704 30.6019 50.9143 35.3909C50.9143 38.5767 51.5965 41.6716 52.2791 44.7685L52.2791 44.7685C52.7805 47.0431 53.282 49.3187 53.5138 51.6322C53.9995 55.3468 53.7373 59.1208 52.7426 62.7329C51.7862 66.0974 50.0231 69.1787 47.606 71.7103C45.1558 74.2312 42.1848 76.1888 38.8998 77.4469C34.6696 79.0292 30.1685 79.7634 25.6539 79.6074C20.2488 79.6043 14.9408 78.1734 10.2687 75.4602C6.22188 73.069 3.09509 69.3922 1.38837 65.0176C0.563137 62.8355 0.177874 60.5121 0.254713 58.181C0.331551 55.8498 0.868978 53.5567 1.83612 51.4335C3.41781 48.135 6.08167 45.4756 9.38566 43.8965C13.4694 42.0509 17.9844 41.3677 22.4326 41.9222C22.6968 41.2278 22.9656 40.5334 23.2341 39.84C23.585 38.934 23.9351 38.0296 24.2733 37.1293C20.4704 35.6056 17.2904 32.8507 15.2437 29.3067C13.7632 26.5768 13.1578 23.459 13.5092 20.3746C13.8606 17.2902 15.152 14.3878 17.2088 12.0596C19.4195 9.68483 22.4517 8.23779 25.6912 8.01172ZM61.9214 28.4749C61.9128 27.533 62.0939 26.599 62.4541 25.7284C62.8142 24.8578 63.3459 24.0684 64.0177 23.407C64.6895 22.7456 65.4875 22.2258 66.3645 21.8784C67.2415 21.531 68.1794 21.3632 69.1227 21.3849C71.0982 21.2822 73.0355 21.9551 74.5205 23.2598L72.6176 25.5569C71.6493 24.6394 70.3579 24.1397 69.0232 24.1663C67.9488 24.2115 66.9347 24.6746 66.1979 25.4566C65.4611 26.2386 65.0601 27.2773 65.0805 28.3507C65.0463 28.9141 65.1287 29.4785 65.3226 30.0088C65.5165 30.539 65.8177 31.0236 66.2074 31.4325C66.5972 31.8414 67.0671 32.1658 67.5879 32.3854C68.1087 32.605 68.6693 32.7152 69.2346 32.7091C70.2487 32.7433 71.2471 32.4517 72.0828 31.8771V30.0146H69.048V27.4071H74.9683V33.3175C73.343 34.7348 71.2558 35.5118 69.0978 35.5029C68.1497 35.5496 67.2022 35.3998 66.3149 35.0631C65.4277 34.7264 64.6198 34.2099 63.9422 33.5463C63.2646 32.8826 62.732 32.0862 62.3777 31.207C62.0235 30.3278 61.8555 29.3849 61.8841 28.4377L61.9214 28.4749ZM83.8583 27.6642C84.2721 28.082 84.5056 28.6449 84.5088 29.2324H80.0188C80.2551 27.8665 81.0511 26.9974 82.2949 26.9974C82.8833 27.0071 83.4445 27.2465 83.8583 27.6642ZM77.3716 28.0373C77.1251 28.6965 77.0145 29.3986 77.0463 30.1016L77.0214 30.1388C77.0401 31.2663 77.4032 32.3613 78.062 33.2773C78.7209 34.1933 79.6442 34.8866 80.7084 35.2646C81.7726 35.6426 82.927 35.6872 84.0173 35.3926C85.1076 35.0979 86.0818 34.4779 86.8097 33.6155L85.1058 32.1007C84.7864 32.44 84.4011 32.7108 83.9734 32.8965C83.5457 33.0823 83.0847 33.179 82.6183 33.181C82.0109 33.2109 81.4137 33.0177 80.9393 32.638C80.4649 32.2582 80.1463 31.7181 80.0437 31.1198H87.3694V30.3375C87.3694 27.3574 85.7525 24.6381 82.2451 24.6381C81.5403 24.6424 80.8436 24.7888 80.1968 25.0683C79.55 25.3479 78.9663 25.7549 78.4809 26.2651C77.9954 26.7753 77.6181 27.378 77.3716 28.0373ZM89.6327 24.7993H92.6177V26.2893C92.956 25.7809 93.4142 25.3633 93.952 25.0732C94.4899 24.7831 95.0909 24.6293 95.7022 24.6255C97.9534 24.6255 99.2718 26.1155 99.2718 28.5244V35.304H96.2868V29.4432C96.2868 28.0277 95.6152 27.3075 94.4833 27.3075C93.3515 27.3075 92.6177 28.0277 92.6177 29.4432V35.304H89.6327V24.7993ZM108.123 27.664C108.537 28.0817 108.771 28.6446 108.774 29.2322H104.271C104.297 28.6389 104.547 28.0775 104.972 27.6623C105.397 27.2471 105.965 27.0092 106.56 26.9971C107.148 27.0068 107.709 27.2462 108.123 27.664ZM101.637 28.0216C101.388 28.6856 101.277 29.3932 101.311 30.1013L101.349 30.1262C101.371 31.2534 101.737 32.347 102.397 33.2615C103.058 34.176 103.981 34.8681 105.046 35.2456C106.11 35.623 107.264 35.668 108.354 35.3746C109.444 35.0812 110.419 34.4632 111.149 33.6029L109.445 32.088C109.116 32.4354 108.719 32.7107 108.278 32.8967C107.837 33.0826 107.362 33.1751 106.883 33.1683C106.278 33.1951 105.684 33.0006 105.212 32.6211C104.74 32.2416 104.423 31.7032 104.321 31.1071H111.672V30.3248C111.672 27.3448 110.067 24.6255 106.56 24.6255C105.85 24.623 105.146 24.7648 104.493 25.0421C103.839 25.3195 103.249 25.7266 102.758 26.2388C102.267 26.751 101.886 27.3576 101.637 28.0216ZM113.898 24.7995H116.883V26.9104C117.098 26.2049 117.549 25.5939 118.159 25.1785C118.77 24.7631 119.504 24.5681 120.241 24.6257V27.7423H120.079C118.102 27.7423 116.883 28.984 116.883 31.4674V35.3042H113.898V24.7995ZM127.828 31.07V31.517C127.828 32.5972 126.895 33.3671 125.502 33.3671C124.532 33.3671 123.873 32.9325 123.873 32.1254C123.873 31.1817 124.681 30.6726 125.925 30.6726C126.581 30.6675 127.229 30.803 127.828 31.07ZM125.216 28.8598C122.729 28.8598 120.987 29.9152 120.987 32.2123V32.2868C120.99 32.7418 121.088 33.1912 121.276 33.6059C121.463 34.0207 121.735 34.3915 122.075 34.6946C122.415 34.9977 122.815 35.2262 123.249 35.3654C123.683 35.5046 124.141 35.5514 124.594 35.5028C125.191 35.5272 125.786 35.4197 126.337 35.1879C126.887 34.9561 127.379 34.6057 127.778 34.1618V35.3041H130.664V29.2199C130.705 28.6132 130.626 28.0043 130.429 27.4287C130.233 26.8531 129.923 26.3224 129.519 25.8673C129.039 25.4345 128.477 25.1017 127.866 24.8885C127.255 24.6753 126.608 24.5859 125.962 24.6256C124.555 24.599 123.16 24.892 121.883 25.4824L122.629 27.7547C123.554 27.3807 124.542 27.1869 125.539 27.1835C127.032 27.1835 127.791 27.8664 127.791 29.1081V29.2819C126.963 28.9946 126.092 28.8518 125.216 28.8598ZM136.347 20.9876H133.362V35.2918H136.347V20.9876ZM65.7774 40.4818H62.5188V54.2024H65.4914V45.312L69.3221 51.1106H69.3967L73.2648 45.2499V54.2024H76.2622V40.4818H73.0036L69.3967 46.2929L65.7774 40.4818ZM79.384 43.7103H82.4312V54.215H79.4462L79.384 43.7103ZM79.3094 39.9108H82.4312V42.5556H79.2969L79.3094 39.9108ZM85.3172 54.2025V39.8983H88.3022V54.2025H85.3172ZM94.2219 39.8983H91.2369V54.2025H94.2219V39.8983ZM97.4558 50.8624L96.2121 52.8243L96.1748 52.8119C97.4613 53.8272 99.0497 54.3864 100.69 54.4012C102.966 54.4012 104.707 53.3334 104.707 50.999C104.707 49.124 103.003 48.379 101.535 47.8824C101.451 47.8549 101.367 47.828 101.285 47.8014C100.25 47.4678 99.3961 47.1927 99.3961 46.6407C99.3961 46.2309 99.7692 45.9205 100.491 45.9205C101.506 46.0095 102.484 46.3463 103.339 46.9014L104.471 44.8402C103.313 44.0551 101.952 43.6236 100.553 43.5985C98.426 43.5985 96.6972 44.7906 96.6972 46.9263C96.6972 48.9626 98.3762 49.6456 99.8438 50.0801C100.001 50.1306 100.155 50.1781 100.304 50.2242C101.258 50.518 102.02 50.7529 102.02 51.3218C102.02 51.7937 101.647 52.1041 100.777 52.1041C99.5696 52.034 98.412 51.6012 97.4558 50.8624Z" fill="#1E1E1D"/>
<path d="M48.8493 17.896C53.7621 14.1709 56.2496 12.0973 57.8416 9.34074C60.0679 5.46668 58.7247 2.18862 55.889 0.897267C54.6229 0.313046 53.1783 0.245719 51.8632 0.709638C50.5482 1.17356 49.4667 2.13201 48.8493 3.38064C48.2369 2.13064 47.1578 1.17032 45.8438 0.705982C44.5299 0.241639 43.0859 0.310319 41.8222 0.897267C38.9864 2.13895 37.6308 5.46668 39.8695 9.34074C41.4615 12.0973 43.949 14.1709 48.8493 17.896Z" fill="#ADADAD"/>
</svg>
