<svg width="93" height="60" viewBox="0 0 93 60" fill="none" xmlns="http://www.w3.org/2000/svg">
<path fill-rule="evenodd" clip-rule="evenodd" d="M66.8042 49.2315H56.8547V50.5084L58.1339 50.6503C58.5603 50.7922 58.8446 50.7922 58.8446 51.5016V56.8929C58.8446 57.1766 58.7024 57.7442 58.1339 57.7442L56.8547 57.886V59.1629H66.8042C70.3576 59.1629 73.3425 57.7442 73.3425 54.1972C73.3425 50.6503 70.4998 49.2315 66.8042 49.2315ZM66.0935 57.3185H62.8244V51.2178H66.0935C68.0835 51.2178 68.652 52.0691 68.652 54.3391C68.7941 56.3254 68.1261 57.3185 66.0935 57.3185ZM91.934 57.6448C91.2233 57.503 91.0812 57.0774 90.7969 56.7936L85.8221 49.6997C85.3957 49.1322 85.2535 48.9903 84.685 48.9903H76.4411V50.2672L78.2888 50.4091C78.3856 50.4144 78.4786 50.4486 78.5557 50.5073C78.6328 50.566 78.6904 50.6464 78.721 50.7382C78.7517 50.83 78.754 50.9289 78.7276 51.022C78.7012 51.1151 78.6474 51.1982 78.5731 51.2603L74.8776 56.7936C74.7354 56.9355 74.5933 57.3611 74.0247 57.3611L72.4612 57.503V58.7799H79.497V57.503L78.2178 57.3611C77.6492 57.3611 77.365 56.9355 77.6493 56.5098L78.2178 55.6586H84.8982L85.4668 56.3679C85.8932 56.9355 85.3246 57.2192 84.8982 57.2192L83.619 57.3611V58.638H93V57.3611L91.934 57.6448ZM79.7102 54.3817L81.7001 51.4022L83.9743 54.3817H79.7102ZM48.3265 50.5084L49.7478 50.6503C49.9486 50.6841 50.1306 50.7886 50.2609 50.9447C50.3913 51.1008 50.4614 51.2983 50.4585 51.5016V56.4673L44.9152 49.5153C44.7996 49.3654 44.6475 49.2475 44.4733 49.173C44.2991 49.0985 44.1087 49.0698 43.9202 49.0896H36.8134V50.3665L38.2347 50.5084C38.4355 50.5422 38.6175 50.6467 38.7479 50.8028C38.8782 50.9589 38.9483 51.1565 38.9454 51.3597V57.0348C38.9454 57.3185 38.8033 57.886 38.2347 57.886L36.8134 58.0279V59.3048H43.4938V58.0137L42.0725 57.8718C41.8717 57.838 41.6897 57.7336 41.5594 57.5775C41.429 57.4213 41.3589 57.2238 41.3618 57.0206V52.0549L46.9051 59.0069C47.0207 59.1568 47.1728 59.2746 47.347 59.3492C47.5212 59.4237 47.7116 59.4523 47.9 59.4325H53.017V51.913C53.017 51.6293 53.1591 51.0617 53.7276 51.0617L55.149 50.9198V49.643H48.4686L48.3265 50.5084ZM27.4466 48.6498C20.9083 48.6498 19.2026 51.7711 19.2026 54.3249C19.2026 56.8787 20.9083 60 27.4466 60C33.9849 60 35.6905 56.8787 35.6905 54.3249C35.6905 51.7711 34.0133 48.6498 27.4466 48.6498ZM27.4466 58.0137C24.8881 58.0137 23.751 56.8787 23.751 54.3249C23.751 51.7711 24.746 50.6361 27.4466 50.6361C30.1472 50.6361 31.1421 51.7711 31.1421 54.3249C31.1421 56.8787 30.005 58.0137 27.4466 58.0137ZM17.1985 56.751V51.5016C17.1985 51.2178 17.3407 50.6503 17.9092 50.6503L19.3306 50.5084V49.2315H10.8024L10.6602 50.5084L12.0816 50.6503C12.2824 50.6841 12.4644 50.7886 12.5947 50.9447C12.7251 51.1008 12.7951 51.2983 12.7923 51.5016V53.0622H6.39615V51.5016C6.39615 51.2178 6.53829 50.6503 7.10683 50.6503L8.5282 50.5084V49.2315H0V50.5084L1.42137 50.6503C1.62212 50.6841 1.80413 50.7886 1.93447 50.9447C2.06481 51.1008 2.13489 51.2983 2.13205 51.5016V56.751C2.13205 57.0347 1.98991 57.6023 1.42137 57.6023L0 57.7442V59.021H8.5282V57.7442L7.10683 57.6023C6.90607 57.5684 6.72407 57.464 6.59373 57.3079C6.46339 57.1518 6.3933 56.9542 6.39615 56.751V55.1762H12.9344V56.7368C12.9344 57.0206 12.7923 57.5881 12.2238 57.5881L10.8024 57.7299V59.0069H19.3306V57.7299L17.9092 57.5881C17.7109 57.5546 17.5308 57.4523 17.4007 57.2991C17.2707 57.1459 17.1991 56.9518 17.1985 56.751ZM34.3544 37.7394C35.2033 37.8413 36.0579 37.8887 36.9129 37.8813C38.4764 38.0232 39.3292 38.1651 39.3292 38.1651C40.0399 35.6113 40.8927 31.7806 41.8877 30.2199C42.1937 29.7762 42.5947 29.4059 43.0618 29.136C43.5289 28.866 44.0503 28.7032 44.5883 28.6593C45.4393 28.7368 46.2957 28.7368 47.1467 28.6593C47.9544 28.654 48.7616 28.7014 49.563 28.8012C50.1084 28.8134 50.6418 28.9628 51.1139 29.2356C51.586 29.5085 51.9814 29.8958 52.2636 30.3618C53.2586 31.9225 54.1114 35.6112 54.8221 38.3069C54.8221 38.3069 55.5328 38.307 57.2384 38.1651C58.944 38.0232 59.7969 38.0232 59.7969 38.0232C60.3654 31.9225 60.934 23.9773 61.2183 19.2953C61.5025 14.6134 62.2132 4.25632 62.2132 4.25632C61.6055 4.13301 60.9849 4.08539 60.3654 4.11448C60.0812 3.83073 58.8019 3.83071 58.8019 3.83071C57.5227 8.9383 57.2384 11.3502 56.2435 15.1809C55.2485 19.0116 54.68 22.1329 53.4007 23.6936C52.9115 24.2935 52.3077 24.7906 51.6246 25.1559C50.9414 25.5212 50.1923 25.7475 49.4209 25.8217H47.1467C46.3857 25.8725 45.6213 25.8248 44.8726 25.6798C44.1011 25.6056 43.3521 25.3793 42.6689 25.014C41.9857 24.6487 41.382 24.1516 40.8927 23.5517C39.6135 21.991 39.0449 18.586 38.05 15.039C37.055 11.4921 36.6286 8.93829 35.4915 3.68882C34.9199 3.68582 34.3491 3.73331 33.7859 3.83071C33.1664 3.80162 32.5458 3.84928 31.9381 3.9726C31.9381 3.9726 32.6488 14.6134 32.933 19.0116C33.2173 23.6936 33.7859 31.6387 34.3544 37.7394ZM23.9784 34.6181C24.9734 37.5976 25.8262 38.5907 26.9633 39.442C28.7095 40.6277 30.7017 41.4038 32.7909 41.712C37.4549 42.332 42.1576 42.6165 46.8625 42.5632C51.5674 42.6206 56.2704 42.3361 60.934 41.712C63.0348 41.4484 65.0372 40.6684 66.7616 39.442C67.8987 38.5907 68.6094 37.5976 69.7465 34.6181C70.4213 32.0576 70.8965 29.4487 71.1678 26.8149C71.31 24.6867 71.7364 21.8491 71.7364 17.3091C71.9909 14.9531 72.0384 12.5794 71.8785 10.2152C71.1678 3.2632 66.7616 1.70255 62.7817 0.99316C60.7918 0.709405 57.3805 0.42565 54.9642 0.283772C53.1164 0.141895 48.426 0 47.0046 0C45.5832 0 40.8927 0.141886 39.0449 0.141886C36.425 0.277542 33.815 0.561765 31.2274 0.99316C27.2476 1.70255 22.8414 3.12132 22.1307 10.2152C21.9886 12.0596 21.9885 14.6134 21.9885 17.3091C22.1307 21.7073 22.4149 24.8286 22.5571 26.8149C22.8162 29.4504 23.2916 32.0602 23.9784 34.6181ZM24.9734 10.2152C25.542 5.81699 27.5319 3.68881 32.0802 2.83755C34.5184 2.36463 36.9894 2.08007 39.4713 1.98632C41.6034 1.84444 45.1568 1.84443 47.0046 1.84443C48.8524 1.84443 52.4058 1.98632 54.5378 1.98632C57.0648 2.10563 59.5813 2.38996 62.071 2.83755C66.4773 3.68881 68.6093 5.81699 69.1779 10.2152C69.4909 14.1322 69.5859 18.0635 69.4622 21.991C69.3074 25.8158 68.7838 29.6167 67.8987 33.3412C67.5742 35.0645 66.7314 36.6483 65.4824 37.8813C63.867 39.2051 61.8812 39.998 59.7969 40.1514C51.3901 41.0972 42.9034 41.0972 34.4965 40.1514C32.4013 40.0464 30.4008 39.2477 28.8111 37.8813C27.5621 36.6483 26.7192 35.0645 26.3948 33.3412C25.4984 29.6188 24.9747 25.8167 24.8313 21.991C24.6637 18.0661 24.7112 14.135 24.9734 10.2152Z" fill="black"/>
</svg>
